wave.vcd
$date
	Sun Sep  1 00:06:30 2019
$end
$version
	Icarus Verilog
$end
$timescale
	1s
$end
$scope module Simulation $end
$scope module Computer $end
$var wire 1 ! clock $end
$var wire 1 " reset $end
$var wire 32 # ram_out [31:0] $end
$var wire 32 $ ram_data [31:0] $end
$var wire 32 % ram_addr [31:0] $end
$var wire 32 & pc [31:0] $end
$var wire 1 ' mem_load $end
$var wire 32 ( instruction [31:0] $end
$scope module CPU $end
$var wire 1 ! clock $end
$var wire 1 " reset $end
$var wire 32 ) wd3prepre [31:0] $end
$var wire 32 * wd3pre [31:0] $end
$var wire 32 + wd3 [31:0] $end
$var wire 32 , uoo [31:0] $end
$var wire 1 - sltorsub $end
$var wire 32 . sign_out [31:0] $end
$var wire 12 / sign_in [11:0] $end
$var wire 32 0 ram_out_change [31:0] $end
$var wire 32 1 ram_out [31:0] $end
$var wire 32 2 r2_out_change [31:0] $end
$var wire 32 3 r2_out [31:0] $end
$var wire 32 4 r1_out [31:0] $end
$var wire 32 5 pc_out [31:0] $end
$var wire 32 6 pc_in_pre [31:0] $end
$var wire 32 7 pc_in [31:0] $end
$var wire 32 8 pc4plus [31:0] $end
$var wire 1 ' mem_load $end
$var wire 1 9 lui_ctrl $end
$var wire 1 : jump $end
$var wire 32 ; jalr_imm [31:0] $end
$var wire 32 < jaljalrimm [31:0] $end
$var wire 32 = jal_imm [31:0] $end
$var wire 32 > instruction [31:0] $end
$var wire 1 ? ex $end
$var wire 1 @ do_store $end
$var wire 3 A ctrl_pre [2:0] $end
$var wire 3 B ctrl [2:0] $end
$var wire 1 C cal $end
$var wire 3 D bnc_sign [2:0] $end
$var wire 32 E bnc_jump_pre [31:0] $end
$var wire 32 F bnc_jump [31:0] $end
$var wire 1 G bnc_ctrl_pre $end
$var wire 1 H bnc_ctrl $end
$var wire 1 I auipc_ctrl $end
$var wire 32 J alu_out [31:0] $end
$var wire 1 K addorjump $end
$var wire 32 L SrcBpre [31:0] $end
$var wire 32 M SrcB [31:0] $end
$var wire 32 N SrcA [31:0] $end
$var wire 1 O Regwswitch $end
$var wire 1 P Reg_load $end
$var wire 1 Q ALUbnc $end
$var wire 1 R ALU_Src $end
$scope module ALU $end
$var wire 3 S ctrl [2:0] $end
$var wire 32 T x [31:0] $end
$var wire 32 U y [31:0] $end
$var wire 32 V out [31:0] $end
$var wire 1 ? ex $end
$scope function calculate $end
$var reg 32 W calculate [31:0] $end
$var reg 3 X ctrl [2:0] $end
$var reg 1 Y ex $end
$var reg 32 Z x [31:0] $end
$var reg 32 [ y [31:0] $end
$upscope $end
$upscope $end
$scope module Load_Length_Changer $end
$var wire 3 \ ctrl [2:0] $end
$var wire 32 ] out [31:0] $end
$var wire 32 ^ in [31:0] $end
$scope function changer $end
$var reg 32 _ changer [31:0] $end
$var reg 3 ` ctrl [2:0] $end
$upscope $end
$upscope $end
$scope module PC $end
$var wire 1 ! clock $end
$var wire 32 a in [31:0] $end
$var wire 1 " reset $end
$var reg 32 b out [31:0] $end
$upscope $end
$scope module Regfile $end
$var wire 1 ! clock $end
$var wire 5 c r1_address [4:0] $end
$var wire 32 d r1_out [31:0] $end
$var wire 5 e r2_address [4:0] $end
$var wire 32 f r2_out [31:0] $end
$var wire 1 " reset $end
$var wire 5 g w_address [4:0] $end
$var wire 32 h w_in [31:0] $end
$var wire 32 i load_x [31:0] $end
$var wire 1 P load $end
$scope module DMux32 $end
$var wire 5 j sel [4:0] $end
$var wire 32 k out [31:0] $end
$var wire 1 P in $end
$upscope $end
$scope module x0 $end
$var wire 1 ! clock $end
$var wire 32 l in [31:0] $end
$var wire 1 m load $end
$var wire 1 " reset $end
$var reg 32 n out [31:0] $end
$upscope $end
$scope module x1 $end
$var wire 1 ! clock $end
$var wire 32 o in [31:0] $end
$var wire 1 p load $end
$var wire 1 " reset $end
$var reg 32 q out [31:0] $end
$upscope $end
$scope module x10 $end
$var wire 1 ! clock $end
$var wire 32 r in [31:0] $end
$var wire 1 s load $end
$var wire 1 " reset $end
$var reg 32 t out [31:0] $end
$upscope $end
$scope module x11 $end
$var wire 1 ! clock $end
$var wire 32 u in [31:0] $end
$var wire 1 v load $end
$var wire 1 " reset $end
$var reg 32 w out [31:0] $end
$upscope $end
$scope module x12 $end
$var wire 1 ! clock $end
$var wire 32 x in [31:0] $end
$var wire 1 y load $end
$var wire 1 " reset $end
$var reg 32 z out [31:0] $end
$upscope $end
$scope module x13 $end
$var wire 1 ! clock $end
$var wire 32 { in [31:0] $end
$var wire 1 | load $end
$var wire 1 " reset $end
$var reg 32 } out [31:0] $end
$upscope $end
$scope module x14 $end
$var wire 1 ! clock $end
$var wire 32 ~ in [31:0] $end
$var wire 1 !" load $end
$var wire 1 " reset $end
$var reg 32 "" out [31:0] $end
$upscope $end
$scope module x15 $end
$var wire 1 ! clock $end
$var wire 32 #" in [31:0] $end
$var wire 1 $" load $end
$var wire 1 " reset $end
$var reg 32 %" out [31:0] $end
$upscope $end
$scope module x16 $end
$var wire 1 ! clock $end
$var wire 32 &" in [31:0] $end
$var wire 1 '" load $end
$var wire 1 " reset $end
$var reg 32 (" out [31:0] $end
$upscope $end
$scope module x17 $end
$var wire 1 ! clock $end
$var wire 32 )" in [31:0] $end
$var wire 1 *" load $end
$var wire 1 " reset $end
$var reg 32 +" out [31:0] $end
$upscope $end
$scope module x18 $end
$var wire 1 ! clock $end
$var wire 32 ," in [31:0] $end
$var wire 1 -" load $end
$var wire 1 " reset $end
$var reg 32 ." out [31:0] $end
$upscope $end
$scope module x19 $end
$var wire 1 ! clock $end
$var wire 32 /" in [31:0] $end
$var wire 1 0" load $end
$var wire 1 " reset $end
$var reg 32 1" out [31:0] $end
$upscope $end
$scope module x2 $end
$var wire 1 ! clock $end
$var wire 32 2" in [31:0] $end
$var wire 1 3" load $end
$var wire 1 " reset $end
$var reg 32 4" out [31:0] $end
$upscope $end
$scope module x20 $end
$var wire 1 ! clock $end
$var wire 32 5" in [31:0] $end
$var wire 1 6" load $end
$var wire 1 " reset $end
$var reg 32 7" out [31:0] $end
$upscope $end
$scope module x21 $end
$var wire 1 ! clock $end
$var wire 32 8" in [31:0] $end
$var wire 1 9" load $end
$var wire 1 " reset $end
$var reg 32 :" out [31:0] $end
$upscope $end
$scope module x22 $end
$var wire 1 ! clock $end
$var wire 32 ;" in [31:0] $end
$var wire 1 <" load $end
$var wire 1 " reset $end
$var reg 32 =" out [31:0] $end
$upscope $end
$scope module x23 $end
$var wire 1 ! clock $end
$var wire 32 >" in [31:0] $end
$var wire 1 ?" load $end
$var wire 1 " reset $end
$var reg 32 @" out [31:0] $end
$upscope $end
$scope module x24 $end
$var wire 1 ! clock $end
$var wire 32 A" in [31:0] $end
$var wire 1 B" load $end
$var wire 1 " reset $end
$var reg 32 C" out [31:0] $end
$upscope $end
$scope module x25 $end
$var wire 1 ! clock $end
$var wire 32 D" in [31:0] $end
$var wire 1 E" load $end
$var wire 1 " reset $end
$var reg 32 F" out [31:0] $end
$upscope $end
$scope module x26 $end
$var wire 1 ! clock $end
$var wire 32 G" in [31:0] $end
$var wire 1 H" load $end
$var wire 1 " reset $end
$var reg 32 I" out [31:0] $end
$upscope $end
$scope module x27 $end
$var wire 1 ! clock $end
$var wire 32 J" in [31:0] $end
$var wire 1 K" load $end
$var wire 1 " reset $end
$var reg 32 L" out [31:0] $end
$upscope $end
$scope module x28 $end
$var wire 1 ! clock $end
$var wire 32 M" in [31:0] $end
$var wire 1 N" load $end
$var wire 1 " reset $end
$var reg 32 O" out [31:0] $end
$upscope $end
$scope module x29 $end
$var wire 1 ! clock $end
$var wire 32 P" in [31:0] $end
$var wire 1 Q" load $end
$var wire 1 " reset $end
$var reg 32 R" out [31:0] $end
$upscope $end
$scope module x3 $end
$var wire 1 ! clock $end
$var wire 32 S" in [31:0] $end
$var wire 1 T" load $end
$var wire 1 " reset $end
$var reg 32 U" out [31:0] $end
$upscope $end
$scope module x30 $end
$var wire 1 ! clock $end
$var wire 32 V" in [31:0] $end
$var wire 1 W" load $end
$var wire 1 " reset $end
$var reg 32 X" out [31:0] $end
$upscope $end
$scope module x31 $end
$var wire 1 ! clock $end
$var wire 32 Y" in [31:0] $end
$var wire 1 Z" load $end
$var wire 1 " reset $end
$var reg 32 [" out [31:0] $end
$upscope $end
$scope module x4 $end
$var wire 1 ! clock $end
$var wire 32 \" in [31:0] $end
$var wire 1 ]" load $end
$var wire 1 " reset $end
$var reg 32 ^" out [31:0] $end
$upscope $end
$scope module x5 $end
$var wire 1 ! clock $end
$var wire 32 _" in [31:0] $end
$var wire 1 `" load $end
$var wire 1 " reset $end
$var reg 32 a" out [31:0] $end
$upscope $end
$scope module x6 $end
$var wire 1 ! clock $end
$var wire 32 b" in [31:0] $end
$var wire 1 c" load $end
$var wire 1 " reset $end
$var reg 32 d" out [31:0] $end
$upscope $end
$scope module x7 $end
$var wire 1 ! clock $end
$var wire 32 e" in [31:0] $end
$var wire 1 f" load $end
$var wire 1 " reset $end
$var reg 32 g" out [31:0] $end
$upscope $end
$scope module x8 $end
$var wire 1 ! clock $end
$var wire 32 h" in [31:0] $end
$var wire 1 i" load $end
$var wire 1 " reset $end
$var reg 32 j" out [31:0] $end
$upscope $end
$scope module x9 $end
$var wire 1 ! clock $end
$var wire 32 k" in [31:0] $end
$var wire 1 l" load $end
$var wire 1 " reset $end
$var reg 32 m" out [31:0] $end
$upscope $end
$upscope $end
$scope module SignExtender_0 $end
$var wire 12 n" in [11:0] $end
$var wire 32 o" out [31:0] $end
$upscope $end
$scope module SignExtender_1 $end
$var wire 12 p" in [11:0] $end
$var wire 32 q" out [31:0] $end
$upscope $end
$scope module SignExtender_bnc $end
$var wire 12 r" in [11:0] $end
$var wire 32 s" out [31:0] $end
$upscope $end
$scope module SignExtender_jal $end
$var wire 20 t" in [19:0] $end
$var wire 32 u" out [31:0] $end
$upscope $end
$scope module Store_Length_Changer $end
$var wire 3 v" ctrl [2:0] $end
$var wire 32 w" in [31:0] $end
$var wire 32 x" out [31:0] $end
$scope function changer $end
$var reg 32 y" changer [31:0] $end
$var reg 3 z" ctrl [2:0] $end
$upscope $end
$upscope $end
$scope module branchcontroller $end
$var wire 3 {" ctrl [2:0] $end
$var wire 32 |" in [31:0] $end
$var wire 1 G out $end
$scope function controller $end
$var reg 1 }" controller $end
$var reg 3 ~" ctrl [2:0] $end
$var reg 32 !# in [31:0] $end
$upscope $end
$upscope $end
$scope module controller $end
$var wire 3 "# funct3 [2:0] $end
$var wire 7 ## funct7 [6:0] $end
$var wire 7 $# op [6:0] $end
$var wire 1 - sltorsub $end
$var wire 1 ' mem_load $end
$var wire 1 9 lui_ctrl $end
$var wire 1 : jump $end
$var wire 1 ? ex $end
$var wire 1 @ do_store $end
$var wire 13 %# controls [12:0] $end
$var wire 1 C cal $end
$var wire 1 I auipc_ctrl $end
$var wire 1 K addorjump $end
$var wire 1 O Regwswitch $end
$var wire 1 P Reg_load $end
$var wire 1 Q ALUbnc $end
$var wire 1 R ALUSrc $end
$scope function decode $end
$var reg 13 &# decode [12:0] $end
$var reg 3 '# funct3 [2:0] $end
$var reg 7 (# funct7 [6:0] $end
$var reg 7 )# op [6:0] $end
$upscope $end
$upscope $end
$upscope $end
$scope module RAM $end
$var wire 32 *# address [31:0] $end
$var wire 1 ! clock $end
$var wire 32 +# in [31:0] $end
$var wire 1 ' load $end
$var wire 32 ,# out [31:0] $end
$var integer 32 -# i [31:0] $end
$upscope $end
$scope module ROM $end
$var wire 32 .# address [31:0] $end
$var wire 32 /# out [31:0] $end
$var integer 32 0# i [31:0] $end
$upscope $end
$upscope $end
$upscope $end
$enddefinitions $end
#0
$dumpvars
b1000000 0#
b0 /#
b0 .#
b1000000 -#
b0 ,#
b0 +#
b0 *#
b0 )#
b0 (#
b0 '#
b0 &#
b0 %#
b0 $#
b0 ##
b0 "#
b0 !#
b0 ~"
1}"
b0 |"
b0 {"
b0 z"
b0 y"
b0 x"
b0 w"
b0 v"
b0 u"
b0 t"
b0 s"
b0 r"
b0 q"
b0 p"
b0 o"
b0 n"
b0 m"
0l"
b0 k"
b0 j"
0i"
b0 h"
b0 g"
0f"
b0 e"
b0 d"
0c"
b0 b"
b0 a"
0`"
b0 _"
b0 ^"
0]"
b0 \"
b0 ["
0Z"
b0 Y"
b0 X"
0W"
b0 V"
b0 U"
0T"
b0 S"
b0 R"
0Q"
b0 P"
b0 O"
0N"
b0 M"
b0 L"
0K"
b0 J"
b0 I"
0H"
b0 G"
b0 F"
0E"
b0 D"
b0 C"
0B"
b0 A"
b0 @"
0?"
b0 >"
b0 ="
0<"
b0 ;"
b0 :"
09"
b0 8"
b0 7"
06"
b0 5"
b0 4"
03"
b0 2"
b0 1"
00"
b0 /"
b0 ."
0-"
b0 ,"
b0 +"
0*"
b0 )"
b0 ("
0'"
b0 &"
b0 %"
0$"
b0 #"
b0 ""
0!"
b0 ~
b0 }
0|
b0 {
b0 z
0y
b0 x
b0 w
0v
b0 u
b0 t
0s
b0 r
b0 q
0p
b0 o
b0 n
0m
b0 l
b0 k
b0 j
b0 i
b0 h
b0 g
b0 f
b0 e
b0 d
b0 c
b0 b
b100 a
b0 `
bx _
b0 ^
bx ]
b0 \
b0 [
b0 Z
0Y
b0 X
b0 W
b0 V
b0 U
b0 T
b0 S
0R
0Q
0P
0O
b0 N
b0 M
b0 L
0K
b0 J
0I
0H
1G
b0 F
b0 E
b10 D
0C
b0 B
b0 A
0@
0?
b0 >
b0 =
b0 <
b0 ;
0:
09
b100 8
b100 7
b100 6
b0 5
b0 4
b0 3
b0 2
b0 1
bx 0
b0 /
b0 .
0-
b0 ,
b0 +
b0 *
b0 )
b0 (
0'
b0 &
b0 %
b0 $
b0 #
1"
0!
$end
#1
1!
#2
0!
0"
#3
b100 +
b100 h
b100 l
b100 o
b100 r
b100 u
b100 x
b100 {
b100 ~
b100 #"
b100 &"
b100 )"
b100 ,"
b100 /"
b100 2"
b100 5"
b100 8"
b100 ;"
b100 >"
b100 A"
b100 D"
b100 G"
b100 J"
b100 M"
b100 P"
b100 S"
b100 V"
b100 Y"
b100 \"
b100 _"
b100 b"
b100 e"
b100 h"
b100 k"
b100 )
0G
0}"
b100 !#
b100 *
b100 %
b100 J
b100 V
b100 |"
b100 *#
b100 W
b100 Z
b1000 7
b1000 a
b100 N
b100 T
b1000 6
b100 F
b1000 8
b100 &
b100 5
b100 b
b100 .#
1!
#4
0!
#5
b1000 +
b1000 h
b1000 l
b1000 o
b1000 r
b1000 u
b1000 x
b1000 {
b1000 ~
b1000 #"
b1000 &"
b1000 )"
b1000 ,"
b1000 /"
b1000 2"
b1000 5"
b1000 8"
b1000 ;"
b1000 >"
b1000 A"
b1000 D"
b1000 G"
b1000 J"
b1000 M"
b1000 P"
b1000 S"
b1000 V"
b1000 Y"
b1000 \"
b1000 _"
b1000 b"
b1000 e"
b1000 h"
b1000 k"
b1000 )
b1000 !#
b1000 *
b1000 %
b1000 J
b1000 V
b1000 |"
b1000 *#
b1000 W
b1000 Z
b1100 7
b1100 a
b1000 N
b1000 T
b1100 6
b1000 F
b1100 8
b1000 &
b1000 5
b1000 b
b1000 .#
1!
#6
0!
#7
b101010 [
b101010 M
b101010 U
b101010 L
1p
b10101010000000101010 <
b0 X
b101010 ,
b10 i
b10 k
b10101010101010000000000000 +
b10101010101010000000000000 h
b10101010101010000000000000 l
b10101010101010000000000000 o
b10101010101010000000000000 r
b10101010101010000000000000 u
b10101010101010000000000000 x
b10101010101010000000000000 {
b10101010101010000000000000 ~
b10101010101010000000000000 #"
b10101010101010000000000000 &"
b10101010101010000000000000 )"
b10101010101010000000000000 ,"
b10101010101010000000000000 /"
b10101010101010000000000000 2"
b10101010101010000000000000 5"
b10101010101010000000000000 8"
b10101010101010000000000000 ;"
b10101010101010000000000000 >"
b10101010101010000000000000 A"
b10101010101010000000000000 D"
b10101010101010000000000000 G"
b10101010101010000000000000 J"
b10101010101010000000000000 M"
b10101010101010000000000000 P"
b10101010101010000000000000 S"
b10101010101010000000000000 V"
b10101010101010000000000000 Y"
b10101010101010000000000000 \"
b10101010101010000000000000 _"
b10101010101010000000000000 b"
b10101010101010000000000000 e"
b10101010101010000000000000 h"
b10101010101010000000000000 k"
b10101010000000101010 =
b10101010000000101010 u"
b0 B
b0 S
b101010 .
b101010 o"
b101010 /
b101010 n"
1C
1P
19
b110110 )
b0 A
b0 0
b0 ]
b0 _
b10 `
b10 z"
b100000100000 E
b100000100000 s"
b1010000010 %#
b1010000010 &#
b1 (#
b10 '#
b110111 )#
b10 ~"
b110110 !#
b110110 *
b10101010101010 t"
b101010 ;
b101010 q"
b101010 p"
b10 \
b10 v"
b1010 e
b10101 c
b1 g
b1 j
b10 {"
b100001 r"
b1 ##
b10 "#
b110111 $#
b110110 %
b110110 J
b110110 V
b110110 |"
b110110 *#
b110110 W
b1100 Z
b10000 7
b10000 a
b10101010101010000010110111 (
b10101010101010000010110111 >
b10101010101010000010110111 /#
b1100 N
b1100 T
b10000 6
b100000101100 F
b10000 8
b1100 &
b1100 5
b1100 b
b1100 .#
1!
#8
0!
#9
b0 L
b0 [
b0 <
b0 ,
b0 M
b0 U
b0 =
b0 u"
0p
13"
b0 .
b0 o"
b0 /
b0 n"
09
1I
b10000 )
b0 `
b0 z"
b100 i
b100 k
b10000 +
b10000 h
b10000 l
b10000 o
b10000 r
b10000 u
b10000 x
b10000 {
b10000 ~
b10000 #"
b10000 &"
b10000 )"
b10000 ,"
b10000 /"
b10000 2"
b10000 5"
b10000 8"
b10000 ;"
b10000 >"
b10000 A"
b10000 D"
b10000 G"
b10000 J"
b10000 M"
b10000 P"
b10000 S"
b10000 V"
b10000 Y"
b10000 \"
b10000 _"
b10000 b"
b10000 e"
b10000 h"
b10000 k"
b10 E
b10 s"
b1010000001 %#
b1010000001 &#
b0 (#
b0 '#
b10111 )#
b0 ~"
b10000 !#
b10000 *
b0 t"
b0 ;
b0 q"
b0 p"
b0 \
b0 v"
b0 e
b0 c
b10 g
b10 j
b0 {"
b10 r"
b0 ##
b0 "#
b10111 $#
b10000 %
b10000 J
b10000 V
b10000 |"
b10000 *#
b10000 W
b10000 Z
b10100 7
b10100 a
b100010111 (
b100010111 >
b100010111 /#
b10000 N
b10000 T
b10100 6
b10101010101010000000000000 q
b10010 F
b10100 8
b10000 &
b10000 5
b10000 b
b10000 .#
1!
#10
0!
#11
b10100 +
b10100 h
b10100 l
b10100 o
b10100 r
b10100 u
b10100 x
b10100 {
b10100 ~
b10100 #"
b10100 &"
b10100 )"
b10100 ,"
b10100 /"
b10100 2"
b10100 5"
b10100 8"
b10100 ;"
b10100 >"
b10100 A"
b10100 D"
b10100 G"
b10100 J"
b10100 M"
b10100 P"
b10100 S"
b10100 V"
b10100 Y"
b10100 \"
b10100 _"
b10100 b"
b10100 e"
b10100 h"
b10100 k"
0m
03"
0C
0P
0I
b10100 )
b0 i
b0 k
b0 E
b0 s"
b0 %#
b0 &#
b0 )#
b10100 !#
b10100 *
b0 g
b0 j
b0 r"
b0 $#
b10100 %
b10100 J
b10100 V
b10100 |"
b10100 *#
b10100 W
b10100 Z
b11000 7
b11000 a
b0 (
b0 >
b0 /#
b10100 N
b10100 T
b11000 6
b10100 F
b11000 8
b10100 &
b10100 5
b10100 b
b10100 .#
b10000 4"
1!
#12
0!
#13
b11000 +
b11000 h
b11000 l
b11000 o
b11000 r
b11000 u
b11000 x
b11000 {
b11000 ~
b11000 #"
b11000 &"
b11000 )"
b11000 ,"
b11000 /"
b11000 2"
b11000 5"
b11000 8"
b11000 ;"
b11000 >"
b11000 A"
b11000 D"
b11000 G"
b11000 J"
b11000 M"
b11000 P"
b11000 S"
b11000 V"
b11000 Y"
b11000 \"
b11000 _"
b11000 b"
b11000 e"
b11000 h"
b11000 k"
b11000 )
b11000 !#
b11000 *
b11000 %
b11000 J
b11000 V
b11000 |"
b11000 *#
b11000 W
b11000 Z
b11100 7
b11100 a
b11000 N
b11000 T
b11100 6
b11000 F
b11100 8
b11000 &
b11000 5
b11000 b
b11000 .#
1!
#14
0!
#15
b11100 +
b11100 h
b11100 l
b11100 o
b11100 r
b11100 u
b11100 x
b11100 {
b11100 ~
b11100 #"
b11100 &"
b11100 )"
b11100 ,"
b11100 /"
b11100 2"
b11100 5"
b11100 8"
b11100 ;"
b11100 >"
b11100 A"
b11100 D"
b11100 G"
b11100 J"
b11100 M"
b11100 P"
b11100 S"
b11100 V"
b11100 Y"
b11100 \"
b11100 _"
b11100 b"
b11100 e"
b11100 h"
b11100 k"
b11100 )
b11100 !#
b11100 *
b11100 %
b11100 J
b11100 V
b11100 |"
b11100 *#
b11100 W
b11100 Z
b100000 7
b100000 a
b11100 N
b11100 T
b100000 6
b11100 F
b100000 8
b11100 &
b11100 5
b11100 b
b11100 .#
1!
#16
0!
#17
b100000 +
b100000 h
b100000 l
b100000 o
b100000 r
b100000 u
b100000 x
b100000 {
b100000 ~
b100000 #"
b100000 &"
b100000 )"
b100000 ,"
b100000 /"
b100000 2"
b100000 5"
b100000 8"
b100000 ;"
b100000 >"
b100000 A"
b100000 D"
b100000 G"
b100000 J"
b100000 M"
b100000 P"
b100000 S"
b100000 V"
b100000 Y"
b100000 \"
b100000 _"
b100000 b"
b100000 e"
b100000 h"
b100000 k"
b100000 )
b100000 !#
b100000 *
b100000 %
b100000 J
b100000 V
b100000 |"
b100000 *#
b100000 W
b100000 Z
b100100 7
b100100 a
b100000 N
b100000 T
b100100 6
b100000 F
b100100 8
b100000 &
b100000 5
b100000 b
b100000 .#
1!
#18
0!
#19
b100100 +
b100100 h
b100100 l
b100100 o
b100100 r
b100100 u
b100100 x
b100100 {
b100100 ~
b100100 #"
b100100 &"
b100100 )"
b100100 ,"
b100100 /"
b100100 2"
b100100 5"
b100100 8"
b100100 ;"
b100100 >"
b100100 A"
b100100 D"
b100100 G"
b100100 J"
b100100 M"
b100100 P"
b100100 S"
b100100 V"
b100100 Y"
b100100 \"
b100100 _"
b100100 b"
b100100 e"
b100100 h"
b100100 k"
b100100 )
b100100 !#
b100100 *
b100100 %
b100100 J
b100100 V
b100100 |"
b100100 *#
b100100 W
b100100 Z
b101000 7
b101000 a
b100100 N
b100100 T
b101000 6
b100100 F
b101000 8
b100100 &
b100100 5
b100100 b
b100100 .#
1!
#20
0!
#21
b101000 +
b101000 h
b101000 l
b101000 o
b101000 r
b101000 u
b101000 x
b101000 {
b101000 ~
b101000 #"
b101000 &"
b101000 )"
b101000 ,"
b101000 /"
b101000 2"
b101000 5"
b101000 8"
b101000 ;"
b101000 >"
b101000 A"
b101000 D"
b101000 G"
b101000 J"
b101000 M"
b101000 P"
b101000 S"
b101000 V"
b101000 Y"
b101000 \"
b101000 _"
b101000 b"
b101000 e"
b101000 h"
b101000 k"
b101000 )
b101000 !#
b101000 *
b101000 %
b101000 J
b101000 V
b101000 |"
b101000 *#
b101000 W
b101000 Z
b101100 7
b101100 a
b101000 N
b101000 T
b101100 6
b101000 F
b101100 8
b101000 &
b101000 5
b101000 b
b101000 .#
1!
#22
0!
#23
b101100 +
b101100 h
b101100 l
b101100 o
b101100 r
b101100 u
b101100 x
b101100 {
b101100 ~
b101100 #"
b101100 &"
b101100 )"
b101100 ,"
b101100 /"
b101100 2"
b101100 5"
b101100 8"
b101100 ;"
b101100 >"
b101100 A"
b101100 D"
b101100 G"
b101100 J"
b101100 M"
b101100 P"
b101100 S"
b101100 V"
b101100 Y"
b101100 \"
b101100 _"
b101100 b"
b101100 e"
b101100 h"
b101100 k"
b101100 )
b101100 !#
b101100 *
b101100 %
b101100 J
b101100 V
b101100 |"
b101100 *#
b101100 W
b101100 Z
b110000 7
b110000 a
b101100 N
b101100 T
b110000 6
b101100 F
b110000 8
b101100 &
b101100 5
b101100 b
b101100 .#
1!
#24
0!
#25
b110000 +
b110000 h
b110000 l
b110000 o
b110000 r
b110000 u
b110000 x
b110000 {
b110000 ~
b110000 #"
b110000 &"
b110000 )"
b110000 ,"
b110000 /"
b110000 2"
b110000 5"
b110000 8"
b110000 ;"
b110000 >"
b110000 A"
b110000 D"
b110000 G"
b110000 J"
b110000 M"
b110000 P"
b110000 S"
b110000 V"
b110000 Y"
b110000 \"
b110000 _"
b110000 b"
b110000 e"
b110000 h"
b110000 k"
b110000 )
b110000 !#
b110000 *
b110000 %
b110000 J
b110000 V
b110000 |"
b110000 *#
b110000 W
b110000 Z
b110100 7
b110100 a
b110000 N
b110000 T
b110100 6
b110000 F
b110100 8
b110000 &
b110000 5
b110000 b
b110000 .#
1!
#26
0!
#27
b110100 +
b110100 h
b110100 l
b110100 o
b110100 r
b110100 u
b110100 x
b110100 {
b110100 ~
b110100 #"
b110100 &"
b110100 )"
b110100 ,"
b110100 /"
b110100 2"
b110100 5"
b110100 8"
b110100 ;"
b110100 >"
b110100 A"
b110100 D"
b110100 G"
b110100 J"
b110100 M"
b110100 P"
b110100 S"
b110100 V"
b110100 Y"
b110100 \"
b110100 _"
b110100 b"
b110100 e"
b110100 h"
b110100 k"
b110100 )
b110100 !#
b110100 *
b110100 %
b110100 J
b110100 V
b110100 |"
b110100 *#
b110100 W
b110100 Z
b111000 7
b111000 a
b110100 N
b110100 T
b111000 6
b110100 F
b111000 8
b110100 &
b110100 5
b110100 b
b110100 .#
1!
#28
0!
#29
b111000 +
b111000 h
b111000 l
b111000 o
b111000 r
b111000 u
b111000 x
b111000 {
b111000 ~
b111000 #"
b111000 &"
b111000 )"
b111000 ,"
b111000 /"
b111000 2"
b111000 5"
b111000 8"
b111000 ;"
b111000 >"
b111000 A"
b111000 D"
b111000 G"
b111000 J"
b111000 M"
b111000 P"
b111000 S"
b111000 V"
b111000 Y"
b111000 \"
b111000 _"
b111000 b"
b111000 e"
b111000 h"
b111000 k"
b111000 )
b111000 !#
b111000 *
b111000 %
b111000 J
b111000 V
b111000 |"
b111000 *#
b111000 W
b111000 Z
b111100 7
b111100 a
b111000 N
b111000 T
b111100 6
b111000 F
b111100 8
b111000 &
b111000 5
b111000 b
b111000 .#
1!
#30
0!
#31
b111100 +
b111100 h
b111100 l
b111100 o
b111100 r
b111100 u
b111100 x
b111100 {
b111100 ~
b111100 #"
b111100 &"
b111100 )"
b111100 ,"
b111100 /"
b111100 2"
b111100 5"
b111100 8"
b111100 ;"
b111100 >"
b111100 A"
b111100 D"
b111100 G"
b111100 J"
b111100 M"
b111100 P"
b111100 S"
b111100 V"
b111100 Y"
b111100 \"
b111100 _"
b111100 b"
b111100 e"
b111100 h"
b111100 k"
b111100 )
b111100 !#
b111100 *
b111100 %
b111100 J
b111100 V
b111100 |"
b111100 *#
b111100 W
b111100 Z
b1000000 7
b1000000 a
b111100 N
b111100 T
b1000000 6
b111100 F
b1000000 8
b111100 &
b111100 5
b111100 b
b111100 .#
1!
#32
0!
#33
b1000000 +
b1000000 h
b1000000 l
b1000000 o
b1000000 r
b1000000 u
b1000000 x
b1000000 {
b1000000 ~
b1000000 #"
b1000000 &"
b1000000 )"
b1000000 ,"
b1000000 /"
b1000000 2"
b1000000 5"
b1000000 8"
b1000000 ;"
b1000000 >"
b1000000 A"
b1000000 D"
b1000000 G"
b1000000 J"
b1000000 M"
b1000000 P"
b1000000 S"
b1000000 V"
b1000000 Y"
b1000000 \"
b1000000 _"
b1000000 b"
b1000000 e"
b1000000 h"
b1000000 k"
b1000000 )
b1000000 !#
b1000000 *
b1000000 %
b1000000 J
b1000000 V
b1000000 |"
b1000000 *#
b1000000 W
b1000000 Z
b1000100 7
b1000100 a
b1000000 N
b1000000 T
b1000100 6
b1000000 F
b1000100 8
b1000000 &
b1000000 5
b1000000 b
b1000000 .#
1!
#34
0!
#35
b1000100 +
b1000100 h
b1000100 l
b1000100 o
b1000100 r
b1000100 u
b1000100 x
b1000100 {
b1000100 ~
b1000100 #"
b1000100 &"
b1000100 )"
b1000100 ,"
b1000100 /"
b1000100 2"
b1000100 5"
b1000100 8"
b1000100 ;"
b1000100 >"
b1000100 A"
b1000100 D"
b1000100 G"
b1000100 J"
b1000100 M"
b1000100 P"
b1000100 S"
b1000100 V"
b1000100 Y"
b1000100 \"
b1000100 _"
b1000100 b"
b1000100 e"
b1000100 h"
b1000100 k"
b1000100 )
b1000100 !#
b1000100 *
b1000100 %
b1000100 J
b1000100 V
b1000100 |"
b1000100 *#
b1000100 W
b1000100 Z
b1001000 7
b1001000 a
b1000100 N
b1000100 T
b1001000 6
b1000100 F
b1001000 8
b1000100 &
b1000100 5
b1000100 b
b1000100 .#
1!
#36
0!
#37
b1001000 +
b1001000 h
b1001000 l
b1001000 o
b1001000 r
b1001000 u
b1001000 x
b1001000 {
b1001000 ~
b1001000 #"
b1001000 &"
b1001000 )"
b1001000 ,"
b1001000 /"
b1001000 2"
b1001000 5"
b1001000 8"
b1001000 ;"
b1001000 >"
b1001000 A"
b1001000 D"
b1001000 G"
b1001000 J"
b1001000 M"
b1001000 P"
b1001000 S"
b1001000 V"
b1001000 Y"
b1001000 \"
b1001000 _"
b1001000 b"
b1001000 e"
b1001000 h"
b1001000 k"
b1001000 )
b1001000 !#
b1001000 *
b1001000 %
b1001000 J
b1001000 V
b1001000 |"
b1001000 *#
b1001000 W
b1001000 Z
b1001100 7
b1001100 a
b1001000 N
b1001000 T
b1001100 6
b1001000 F
b1001100 8
b1001000 &
b1001000 5
b1001000 b
b1001000 .#
1!
#38
0!
