wave.vcd
$date
	Wed Aug 28 22:19:15 2019
$end
$version
	Icarus Verilog
$end
$timescale
	1s
$end
$scope module Simulation $end
$scope module Computer $end
$var wire 1 ! clock $end
$var wire 1 " reset $end
$var wire 32 # ram_out [31:0] $end
$var wire 32 $ ram_data [31:0] $end
$var wire 32 % ram_addr [31:0] $end
$var wire 32 & pc [31:0] $end
$var wire 1 ' mem_load $end
$var wire 32 ( instruction [31:0] $end
$scope module CPU $end
$var wire 1 ! clock $end
$var wire 1 " reset $end
$var wire 32 ) wd3pre [31:0] $end
$var wire 32 * wd3 [31:0] $end
$var wire 32 + uoo [31:0] $end
$var wire 1 , sltorsub $end
$var wire 32 - sign_out [31:0] $end
$var wire 12 . sign_in [11:0] $end
$var wire 32 / ram_out_change [31:0] $end
$var wire 32 0 ram_out [31:0] $end
$var wire 32 1 r2_out_change [31:0] $end
$var wire 32 2 r2_out [31:0] $end
$var wire 32 3 r1_out [31:0] $end
$var wire 32 4 pc_out [31:0] $end
$var wire 32 5 pc_in_pre [31:0] $end
$var wire 32 6 pc_in [31:0] $end
$var wire 32 7 pc4plus [31:0] $end
$var wire 1 ' mem_load $end
$var wire 1 8 jump $end
$var wire 32 9 jalr_imm [31:0] $end
$var wire 32 : jaljalrimm [31:0] $end
$var wire 32 ; jal_imm [31:0] $end
$var wire 32 < instruction [31:0] $end
$var wire 1 = ex $end
$var wire 1 > do_store $end
$var wire 3 ? ctrl_pre [2:0] $end
$var wire 3 @ ctrl [2:0] $end
$var wire 1 A cal $end
$var wire 3 B bnc_sign [2:0] $end
$var wire 32 C bnc_jump_pre [31:0] $end
$var wire 32 D bnc_jump [31:0] $end
$var wire 1 E bnc_ctrl_pre $end
$var wire 1 F bnc_ctrl $end
$var wire 32 G alu_out [31:0] $end
$var wire 1 H addorjump $end
$var wire 32 I SrcB [31:0] $end
$var wire 32 J SrcA [31:0] $end
$var wire 1 K Regwswitch $end
$var wire 1 L Reg_load $end
$var wire 1 M ALUbnc $end
$var wire 1 N ALU_Src $end
$scope module ALU $end
$var wire 3 O ctrl [2:0] $end
$var wire 32 P x [31:0] $end
$var wire 32 Q y [31:0] $end
$var wire 32 R out [31:0] $end
$var wire 1 = ex $end
$scope function calculate $end
$var reg 32 S calculate [31:0] $end
$var reg 3 T ctrl [2:0] $end
$var reg 1 U ex $end
$var reg 32 V x [31:0] $end
$var reg 32 W y [31:0] $end
$upscope $end
$upscope $end
$scope module Load_Length_Changer $end
$var wire 3 X ctrl [2:0] $end
$var wire 32 Y out [31:0] $end
$var wire 32 Z in [31:0] $end
$scope function changer $end
$var reg 32 [ changer [31:0] $end
$var reg 3 \ ctrl [2:0] $end
$upscope $end
$upscope $end
$scope module PC $end
$var wire 1 ! clock $end
$var wire 32 ] in [31:0] $end
$var wire 1 " reset $end
$var reg 32 ^ out [31:0] $end
$upscope $end
$scope module Regfile $end
$var wire 1 ! clock $end
$var wire 5 _ r1_address [4:0] $end
$var wire 32 ` r1_out [31:0] $end
$var wire 5 a r2_address [4:0] $end
$var wire 32 b r2_out [31:0] $end
$var wire 1 " reset $end
$var wire 5 c w_address [4:0] $end
$var wire 32 d w_in [31:0] $end
$var wire 32 e load_x [31:0] $end
$var wire 1 L load $end
$scope module DMux32 $end
$var wire 5 f sel [4:0] $end
$var wire 32 g out [31:0] $end
$var wire 1 L in $end
$upscope $end
$scope module x0 $end
$var wire 1 ! clock $end
$var wire 32 h in [31:0] $end
$var wire 1 i load $end
$var wire 1 " reset $end
$var reg 32 j out [31:0] $end
$upscope $end
$scope module x1 $end
$var wire 1 ! clock $end
$var wire 32 k in [31:0] $end
$var wire 1 l load $end
$var wire 1 " reset $end
$var reg 32 m out [31:0] $end
$upscope $end
$scope module x10 $end
$var wire 1 ! clock $end
$var wire 32 n in [31:0] $end
$var wire 1 o load $end
$var wire 1 " reset $end
$var reg 32 p out [31:0] $end
$upscope $end
$scope module x11 $end
$var wire 1 ! clock $end
$var wire 32 q in [31:0] $end
$var wire 1 r load $end
$var wire 1 " reset $end
$var reg 32 s out [31:0] $end
$upscope $end
$scope module x12 $end
$var wire 1 ! clock $end
$var wire 32 t in [31:0] $end
$var wire 1 u load $end
$var wire 1 " reset $end
$var reg 32 v out [31:0] $end
$upscope $end
$scope module x13 $end
$var wire 1 ! clock $end
$var wire 32 w in [31:0] $end
$var wire 1 x load $end
$var wire 1 " reset $end
$var reg 32 y out [31:0] $end
$upscope $end
$scope module x14 $end
$var wire 1 ! clock $end
$var wire 32 z in [31:0] $end
$var wire 1 { load $end
$var wire 1 " reset $end
$var reg 32 | out [31:0] $end
$upscope $end
$scope module x15 $end
$var wire 1 ! clock $end
$var wire 32 } in [31:0] $end
$var wire 1 ~ load $end
$var wire 1 " reset $end
$var reg 32 !" out [31:0] $end
$upscope $end
$scope module x16 $end
$var wire 1 ! clock $end
$var wire 32 "" in [31:0] $end
$var wire 1 #" load $end
$var wire 1 " reset $end
$var reg 32 $" out [31:0] $end
$upscope $end
$scope module x17 $end
$var wire 1 ! clock $end
$var wire 32 %" in [31:0] $end
$var wire 1 &" load $end
$var wire 1 " reset $end
$var reg 32 '" out [31:0] $end
$upscope $end
$scope module x18 $end
$var wire 1 ! clock $end
$var wire 32 (" in [31:0] $end
$var wire 1 )" load $end
$var wire 1 " reset $end
$var reg 32 *" out [31:0] $end
$upscope $end
$scope module x19 $end
$var wire 1 ! clock $end
$var wire 32 +" in [31:0] $end
$var wire 1 ," load $end
$var wire 1 " reset $end
$var reg 32 -" out [31:0] $end
$upscope $end
$scope module x2 $end
$var wire 1 ! clock $end
$var wire 32 ." in [31:0] $end
$var wire 1 /" load $end
$var wire 1 " reset $end
$var reg 32 0" out [31:0] $end
$upscope $end
$scope module x20 $end
$var wire 1 ! clock $end
$var wire 32 1" in [31:0] $end
$var wire 1 2" load $end
$var wire 1 " reset $end
$var reg 32 3" out [31:0] $end
$upscope $end
$scope module x21 $end
$var wire 1 ! clock $end
$var wire 32 4" in [31:0] $end
$var wire 1 5" load $end
$var wire 1 " reset $end
$var reg 32 6" out [31:0] $end
$upscope $end
$scope module x22 $end
$var wire 1 ! clock $end
$var wire 32 7" in [31:0] $end
$var wire 1 8" load $end
$var wire 1 " reset $end
$var reg 32 9" out [31:0] $end
$upscope $end
$scope module x23 $end
$var wire 1 ! clock $end
$var wire 32 :" in [31:0] $end
$var wire 1 ;" load $end
$var wire 1 " reset $end
$var reg 32 <" out [31:0] $end
$upscope $end
$scope module x24 $end
$var wire 1 ! clock $end
$var wire 32 =" in [31:0] $end
$var wire 1 >" load $end
$var wire 1 " reset $end
$var reg 32 ?" out [31:0] $end
$upscope $end
$scope module x25 $end
$var wire 1 ! clock $end
$var wire 32 @" in [31:0] $end
$var wire 1 A" load $end
$var wire 1 " reset $end
$var reg 32 B" out [31:0] $end
$upscope $end
$scope module x26 $end
$var wire 1 ! clock $end
$var wire 32 C" in [31:0] $end
$var wire 1 D" load $end
$var wire 1 " reset $end
$var reg 32 E" out [31:0] $end
$upscope $end
$scope module x27 $end
$var wire 1 ! clock $end
$var wire 32 F" in [31:0] $end
$var wire 1 G" load $end
$var wire 1 " reset $end
$var reg 32 H" out [31:0] $end
$upscope $end
$scope module x28 $end
$var wire 1 ! clock $end
$var wire 32 I" in [31:0] $end
$var wire 1 J" load $end
$var wire 1 " reset $end
$var reg 32 K" out [31:0] $end
$upscope $end
$scope module x29 $end
$var wire 1 ! clock $end
$var wire 32 L" in [31:0] $end
$var wire 1 M" load $end
$var wire 1 " reset $end
$var reg 32 N" out [31:0] $end
$upscope $end
$scope module x3 $end
$var wire 1 ! clock $end
$var wire 32 O" in [31:0] $end
$var wire 1 P" load $end
$var wire 1 " reset $end
$var reg 32 Q" out [31:0] $end
$upscope $end
$scope module x30 $end
$var wire 1 ! clock $end
$var wire 32 R" in [31:0] $end
$var wire 1 S" load $end
$var wire 1 " reset $end
$var reg 32 T" out [31:0] $end
$upscope $end
$scope module x31 $end
$var wire 1 ! clock $end
$var wire 32 U" in [31:0] $end
$var wire 1 V" load $end
$var wire 1 " reset $end
$var reg 32 W" out [31:0] $end
$upscope $end
$scope module x4 $end
$var wire 1 ! clock $end
$var wire 32 X" in [31:0] $end
$var wire 1 Y" load $end
$var wire 1 " reset $end
$var reg 32 Z" out [31:0] $end
$upscope $end
$scope module x5 $end
$var wire 1 ! clock $end
$var wire 32 [" in [31:0] $end
$var wire 1 \" load $end
$var wire 1 " reset $end
$var reg 32 ]" out [31:0] $end
$upscope $end
$scope module x6 $end
$var wire 1 ! clock $end
$var wire 32 ^" in [31:0] $end
$var wire 1 _" load $end
$var wire 1 " reset $end
$var reg 32 `" out [31:0] $end
$upscope $end
$scope module x7 $end
$var wire 1 ! clock $end
$var wire 32 a" in [31:0] $end
$var wire 1 b" load $end
$var wire 1 " reset $end
$var reg 32 c" out [31:0] $end
$upscope $end
$scope module x8 $end
$var wire 1 ! clock $end
$var wire 32 d" in [31:0] $end
$var wire 1 e" load $end
$var wire 1 " reset $end
$var reg 32 f" out [31:0] $end
$upscope $end
$scope module x9 $end
$var wire 1 ! clock $end
$var wire 32 g" in [31:0] $end
$var wire 1 h" load $end
$var wire 1 " reset $end
$var reg 32 i" out [31:0] $end
$upscope $end
$upscope $end
$scope module SignExtender_0 $end
$var wire 12 j" in [11:0] $end
$var wire 32 k" out [31:0] $end
$upscope $end
$scope module SignExtender_1 $end
$var wire 12 l" in [11:0] $end
$var wire 32 m" out [31:0] $end
$upscope $end
$scope module SignExtender_bnc $end
$var wire 12 n" in [11:0] $end
$var wire 32 o" out [31:0] $end
$upscope $end
$scope module SignExtender_jal $end
$var wire 20 p" in [19:0] $end
$var wire 32 q" out [31:0] $end
$upscope $end
$scope module Store_Length_Changer $end
$var wire 3 r" ctrl [2:0] $end
$var wire 32 s" in [31:0] $end
$var wire 32 t" out [31:0] $end
$scope function changer $end
$var reg 32 u" changer [31:0] $end
$var reg 3 v" ctrl [2:0] $end
$upscope $end
$upscope $end
$scope module branchcontroller $end
$var wire 3 w" ctrl [2:0] $end
$var wire 32 x" in [31:0] $end
$var wire 1 E out $end
$scope function controller $end
$var reg 1 y" controller $end
$var reg 3 z" ctrl [2:0] $end
$var reg 32 {" in [31:0] $end
$upscope $end
$upscope $end
$scope module controller $end
$var wire 3 |" funct3 [2:0] $end
$var wire 7 }" op [6:0] $end
$var wire 1 , sltorsub $end
$var wire 1 ' mem_load $end
$var wire 1 8 jump $end
$var wire 1 = ex $end
$var wire 1 > do_store $end
$var wire 11 ~" controls [10:0] $end
$var wire 1 A cal $end
$var wire 1 H addorjump $end
$var wire 1 K Regwswitch $end
$var wire 1 L Reg_load $end
$var wire 1 M ALUbnc $end
$var wire 1 N ALUSrc $end
$scope function decode $end
$var reg 11 !# decode [10:0] $end
$var reg 3 "# funct3 [2:0] $end
$var reg 7 ## op [6:0] $end
$upscope $end
$upscope $end
$upscope $end
$scope module RAM $end
$var wire 32 $# address [31:0] $end
$var wire 1 ! clock $end
$var wire 32 %# in [31:0] $end
$var wire 1 ' load $end
$var wire 32 &# out [31:0] $end
$var integer 32 '# i [31:0] $end
$upscope $end
$scope module ROM $end
$var wire 32 (# address [31:0] $end
$var wire 32 )# out [31:0] $end
$var integer 32 *# i [31:0] $end
$upscope $end
$upscope $end
$upscope $end
$enddefinitions $end
#0
$dumpvars
b1000000 *#
b0 )#
b0 (#
b1000000 '#
b0 &#
b0 %#
b0 $#
b0 ##
b0 "#
b0 !#
b0 ~"
b0 }"
b0 |"
b0 {"
b0 z"
1y"
b0 x"
b0 w"
b0 v"
b0 u"
b0 t"
b0 s"
b0 r"
b0 q"
b0 p"
b0 o"
b0 n"
b0 m"
b0 l"
b0 k"
b0 j"
b0 i"
0h"
b0 g"
b0 f"
0e"
b0 d"
b0 c"
0b"
b0 a"
b0 `"
0_"
b0 ^"
b0 ]"
0\"
b0 ["
b0 Z"
0Y"
b0 X"
b0 W"
0V"
b0 U"
b0 T"
0S"
b0 R"
b0 Q"
0P"
b0 O"
b0 N"
0M"
b0 L"
b0 K"
0J"
b0 I"
b0 H"
0G"
b0 F"
b0 E"
0D"
b0 C"
b0 B"
0A"
b0 @"
b0 ?"
0>"
b0 ="
b0 <"
0;"
b0 :"
b0 9"
08"
b0 7"
b0 6"
05"
b0 4"
b0 3"
02"
b0 1"
b0 0"
0/"
b0 ."
b0 -"
0,"
b0 +"
b0 *"
0)"
b0 ("
b0 '"
0&"
b0 %"
b0 $"
0#"
b0 ""
b0 !"
0~
b0 }
b0 |
0{
b0 z
b0 y
0x
b0 w
b0 v
0u
b0 t
b0 s
0r
b0 q
b0 p
0o
b0 n
b0 m
0l
b0 k
b0 j
0i
b0 h
b0 g
b0 f
b0 e
b0 d
b0 c
b0 b
b0 a
b0 `
b0 _
b0 ^
b100 ]
b0 \
bx [
b0 Z
bx Y
b0 X
b0 W
b0 V
0U
b0 T
b0 S
b0 R
b0 Q
b0 P
b0 O
0N
0M
0L
0K
b0 J
b0 I
0H
b0 G
0F
1E
b0 D
b0 C
b10 B
0A
b0 @
b0 ?
0>
0=
b0 <
b0 ;
b0 :
b0 9
08
b100 7
b100 6
b100 5
b0 4
b0 3
b0 2
b0 1
b0 0
bx /
b0 .
b0 -
0,
b0 +
b0 *
b0 )
b0 (
0'
b0 &
b0 %
b0 $
b0 #
1"
0!
$end
#1
1!
#2
0!
0"
#3
b100 *
b100 d
b100 h
b100 k
b100 n
b100 q
b100 t
b100 w
b100 z
b100 }
b100 ""
b100 %"
b100 ("
b100 +"
b100 ."
b100 1"
b100 4"
b100 7"
b100 :"
b100 ="
b100 @"
b100 C"
b100 F"
b100 I"
b100 L"
b100 O"
b100 R"
b100 U"
b100 X"
b100 ["
b100 ^"
b100 a"
b100 d"
b100 g"
0E
0y"
b100 {"
b100 )
b100 %
b100 G
b100 R
b100 x"
b100 $#
b100 S
b100 V
b1000 6
b1000 ]
b100 J
b100 P
b1000 5
b100 D
b1000 7
b100 &
b100 4
b100 ^
b100 (#
1!
#4
0!
#5
b1000 *
b1000 d
b1000 h
b1000 k
b1000 n
b1000 q
b1000 t
b1000 w
b1000 z
b1000 }
b1000 ""
b1000 %"
b1000 ("
b1000 +"
b1000 ."
b1000 1"
b1000 4"
b1000 7"
b1000 :"
b1000 ="
b1000 @"
b1000 C"
b1000 F"
b1000 I"
b1000 L"
b1000 O"
b1000 R"
b1000 U"
b1000 X"
b1000 ["
b1000 ^"
b1000 a"
b1000 d"
b1000 g"
b1000 {"
b1000 )
b1000 %
b1000 G
b1000 R
b1000 x"
b1000 $#
b1000 S
b1000 V
b1100 6
b1100 ]
b1000 J
b1000 P
b1100 5
b1000 D
b1100 7
b1000 &
b1000 4
b1000 ^
b1000 (#
1!
#6
0!
#7
1E
1y"
1l
b10 e
b10 g
1L
1H
b0 *
b0 d
b0 h
b0 k
b0 n
b0 q
b0 t
b0 w
b0 z
b0 }
b0 ""
b0 %"
b0 ("
b0 +"
b0 ."
b0 1"
b0 4"
b0 7"
b0 :"
b0 ="
b0 @"
b0 C"
b0 F"
b0 I"
b0 L"
b0 O"
b0 R"
b0 U"
b0 X"
b0 ["
b0 ^"
b0 a"
b0 d"
b0 g"
b100000000000 C
b100000000000 o"
b101000 ~"
b101000 !#
b10011 ##
b0 {"
b0 )
b1 c
b1 f
b1 n"
b10011 }"
b0 %
b0 G
b0 R
b0 x"
b0 $#
b0 S
b0 V
b10000 6
b10000 ]
b10010011 (
b10010011 <
b10010011 )#
b0 J
b0 P
b10000 5
b100000001100 D
b10000 7
b1100 &
b1100 4
b1100 ^
b1100 (#
1!
#8
0!
#9
b1010 *
b1010 d
b1010 h
b1010 k
b1010 n
b1010 q
b1010 t
b1010 w
b1010 z
b1010 }
b1010 ""
b1010 %"
b1010 ("
b1010 +"
b1010 ."
b1010 1"
b1010 4"
b1010 7"
b1010 :"
b1010 ="
b1010 @"
b1010 C"
b1010 F"
b1010 I"
b1010 L"
b1010 O"
b1010 R"
b1010 U"
b1010 X"
b1010 ["
b1010 ^"
b1010 a"
b1010 d"
b1010 g"
0E
0y"
b1010 {"
b1010 )
b1010 %
b1010 G
b1010 R
b1010 x"
b1010 $#
b1010 S
b1010 W
b1010 I
b1010 Q
b1010 ;
b1010 q"
0l
1/"
b1010 +
b1010 :
b100 e
b100 g
b1010 -
b1010 k"
b1010 .
b1010 j"
b10 C
b10 o"
b101000000000 p"
b1010 9
b1010 m"
b1010 l"
b1010 a
b10 c
b10 f
b10 n"
b10100 6
b10100 ]
b101000000000000100010011 (
b101000000000000100010011 <
b101000000000000100010011 )#
b10100 5
b10010 D
b10100 7
b10000 &
b10000 4
b10000 ^
b10000 (#
1!
#10
0!
#11
b0 *
b0 d
b0 h
b0 k
b0 n
b0 q
b0 t
b0 w
b0 z
b0 }
b0 ""
b0 %"
b0 ("
b0 +"
b0 ."
b0 1"
b0 4"
b0 7"
b0 :"
b0 ="
b0 @"
b0 C"
b0 F"
b0 I"
b0 L"
b0 O"
b0 R"
b0 U"
b0 X"
b0 ["
b0 ^"
b0 a"
b0 d"
b0 g"
1E
1y"
b0 {"
b0 )
b0 %
b0 G
b0 R
b0 x"
b0 $#
b0 S
b0 W
b0 I
b0 Q
b0 ;
b0 q"
0/"
1P"
b0 +
b0 :
b1000 e
b1000 g
b0 -
b0 k"
b0 .
b0 j"
b100000000010 C
b100000000010 o"
b0 p"
b0 9
b0 m"
b0 l"
b0 a
b11 c
b11 f
b11 n"
b11000 6
b11000 ]
b110010011 (
b110010011 <
b110010011 )#
b11000 5
b100000010110 D
b11000 7
b10100 &
b10100 4
b10100 ^
b10100 (#
b1010 0"
1!
#12
0!
#13
b1 *
b1 d
b1 h
b1 k
b1 n
b1 q
b1 t
b1 w
b1 z
b1 }
b1 ""
b1 %"
b1 ("
b1 +"
b1 ."
b1 1"
b1 4"
b1 7"
b1 :"
b1 ="
b1 @"
b1 C"
b1 F"
b1 I"
b1 L"
b1 O"
b1 R"
b1 U"
b1 X"
b1 ["
b1 ^"
b1 a"
b1 d"
b1 g"
0E
0y"
b1 {"
b1 )
b1 %
b1 G
b1 R
b1 x"
b1 $#
b1 S
b1 W
b1 I
b1 Q
b1000100000000000 ;
b1000100000000000 q"
1l
0P"
b1 +
b1 :
b10 e
b10 g
b1 -
b1 k"
b1 .
b1 j"
b100000000000 C
b100000000000 o"
b100001000 p"
b1 9
b1 m"
b1 l"
b1 a
b1 _
b1 c
b1 f
b1 n"
b11100 6
b11100 ]
b100001000000010010011 (
b100001000000010010011 <
b100001000000010010011 )#
b11100 5
b100000011000 D
b11100 7
b11000 &
b11000 4
b11000 ^
b11000 (#
1!
#14
0!
#15
b11000100000000000 ;
b11000100000000000 q"
0l
1P"
1N
b1 *
b1 d
b1 h
b1 k
b1 n
b1 q
b1 t
b1 w
b1 z
b1 }
b1 ""
b1 %"
b1 ("
b1 +"
b1 ."
b1 1"
b1 4"
b1 7"
b1 :"
b1 ="
b1 @"
b1 C"
b1 F"
b1 I"
b1 L"
b1 O"
b1 R"
b1 U"
b1 X"
b1 ["
b1 ^"
b1 a"
b1 d"
b1 g"
b1000 e
b1000 g
b100000000010 C
b100000000010 o"
b100101000 ~"
b100101000 !#
b110011 ##
b1 {"
b1 )
b100011000 p"
b11 _
b11 c
b11 f
b11 n"
b110011 }"
b100000 6
b100000 ]
b1 %
b1 G
b1 R
b1 x"
b1 $#
b1 S
b0 V
b100011000000110110011 (
b100011000000110110011 <
b100011000000110110011 )#
b100000 5
b0 J
b0 P
b100000011110 D
b100000 7
b11100 &
b11100 4
b11100 ^
b11100 (#
b1 m
b0 3
b0 `
b1 2
b1 b
b1 s"
1!
#16
0!
#17
b0 T
b0 B
1F
b1001 *
b1001 d
b1001 h
b1001 k
b1001 n
b1001 q
b1001 t
b1001 w
b1001 z
b1001 }
b1001 ""
b1001 %"
b1001 ("
b1001 +"
b1001 ."
b1001 1"
b1001 4"
b1001 7"
b1001 :"
b1001 ="
b1001 @"
b1001 C"
b1001 F"
b1001 I"
b1001 L"
b1001 O"
b1001 R"
b1001 U"
b1001 X"
b1001 ["
b1001 ^"
b1001 a"
b1001 d"
b1001 g"
b11111111111100010001111111100000 ;
b11111111111100010001111111100000 q"
b0 @
b0 O
1U
0P"
0A"
0L
1,
1=
1M
b1001 )
b11111111111111111111111111100001 :
b1 ?
b0 /
b0 Y
b0 [
b1 \
b11111111111111110000000000000001 $
b11111111111111110000000000000001 1
b11111111111111110000000000000001 t"
b11111111111111110000000000000001 %#
b11111111111111110000000000000001 u"
b1 v"
b0 e
b0 g
b11111111111111111111111111100001 -
b11111111111111111111111111100001 k"
b111111100001 .
b111111100001 j"
1E
1y"
b1 z"
b1001 {"
b11111111111111111111111111111000 C
b11111111111111111111111111111000 o"
b100001111 ~"
b100001111 !#
b1 "#
b1100011 ##
b1001 %
b1001 G
b1001 R
b1001 x"
b1001 $#
b1001 S
b1010 V
b11111110000100010001 p"
b11111111111111111111111111100001 9
b11111111111111111111111111100001 m"
b111111100001 l"
b1 X
b1 r"
b10 _
b11001 c
b11001 f
b1 w"
b111111111001 n"
b1 |"
b1100011 }"
b11000 6
b11000 ]
b1010 J
b1010 P
b11111110000100010001110011100011 (
b11111110000100010001110011100011 <
b11111110000100010001110011100011 )#
b100100 5
b1 Q"
b1010 3
b1010 `
b11000 D
b100100 7
b100000 &
b100000 4
b100000 ^
b100000 (#
1!
#18
0!
#19
b0 #
b0 0
b0 Z
b0 &#
b1 W
b10 *
b10 d
b10 h
b10 k
b10 n
b10 q
b10 t
b10 w
b10 z
b10 }
b10 ""
b10 %"
b10 ("
b10 +"
b10 ."
b10 1"
b10 4"
b10 7"
b10 :"
b10 ="
b10 @"
b10 C"
b10 F"
b10 I"
b10 L"
b10 O"
b10 R"
b10 U"
b10 X"
b10 ["
b10 ^"
b10 a"
b10 d"
b10 g"
b1 I
b1 Q
1l
b10 {"
b10 )
b1 +
b10 e
b10 g
b10 B
b1000100000000000 ;
b1000100000000000 q"
b10 %
b10 G
b10 R
b10 x"
b10 $#
b10 S
b1 V
0U
0F
0N
1L
0,
0=
0M
b1 :
b0 ?
b0 \
b11111111111111111111111100000001 $
b11111111111111111111111100000001 1
b11111111111111111111111100000001 t"
b11111111111111111111111100000001 %#
b11111111111111111111111100000001 u"
b0 v"
b1 J
b1 P
b1 -
b1 k"
b1 .
b1 j"
0E
0y"
b0 z"
b100000000000 C
b100000000000 o"
b101000 ~"
b101000 !#
b0 "#
b10011 ##
b100001000 p"
b1 9
b1 m"
b1 l"
b0 X
b0 r"
b1 3
b1 `
b1 _
b1 c
b1 f
b0 w"
b1 n"
b0 |"
b10011 }"
b100001000000010010011 (
b100001000000010010011 <
b100001000000010010011 )#
b11100 6
b11100 ]
b11100 5
b100000011000 D
b11100 7
b11000 &
b11000 4
b11000 ^
b11000 (#
1!
#20
0!
#21
b10 W
b10 I
b10 Q
b10 +
b11 *
b11 d
b11 h
b11 k
b11 n
b11 q
b11 t
b11 w
b11 z
b11 }
b11 ""
b11 %"
b11 ("
b11 +"
b11 ."
b11 1"
b11 4"
b11 7"
b11 :"
b11 ="
b11 @"
b11 C"
b11 F"
b11 I"
b11 L"
b11 O"
b11 R"
b11 U"
b11 X"
b11 ["
b11 ^"
b11 a"
b11 d"
b11 g"
b11000100000000000 ;
b11000100000000000 q"
0l
1P"
1N
b11 {"
b11 )
b1000 e
b1000 g
b100000000010 C
b100000000010 o"
b100101000 ~"
b100101000 !#
b110011 ##
b11 %
b11 G
b11 R
b11 x"
b11 $#
b11 S
b1 V
b100011000 p"
b11 _
b11 c
b11 f
b11 n"
b110011 }"
b100000 6
b100000 ]
b1 J
b1 P
b100011000000110110011 (
b100011000000110110011 <
b100011000000110110011 )#
b100000 5
b10 m
b1 3
b1 `
b10 2
b10 b
b10 s"
b100000011110 D
b100000 7
b11100 &
b11100 4
b11100 ^
b11100 (#
1!
#22
0!
#23
b0 T
b0 B
1F
b11111111111100010001111111100000 ;
b11111111111100010001111111100000 q"
b0 @
b0 O
1U
0P"
0A"
0L
1,
1=
1M
b1000 *
b1000 d
b1000 h
b1000 k
b1000 n
b1000 q
b1000 t
b1000 w
b1000 z
b1000 }
b1000 ""
b1000 %"
b1000 ("
b1000 +"
b1000 ."
b1000 1"
b1000 4"
b1000 7"
b1000 :"
b1000 ="
b1000 @"
b1000 C"
b1000 F"
b1000 I"
b1000 L"
b1000 O"
b1000 R"
b1000 U"
b1000 X"
b1000 ["
b1000 ^"
b1000 a"
b1000 d"
b1000 g"
b11111111111111111111111111100001 :
b1 ?
b1 \
b11111111111111110000000000000010 $
b11111111111111110000000000000010 1
b11111111111111110000000000000010 t"
b11111111111111110000000000000010 %#
b11111111111111110000000000000010 u"
b1 v"
b0 e
b0 g
b11111111111111111111111111100001 -
b11111111111111111111111111100001 k"
b111111100001 .
b111111100001 j"
b11111111111111111111111111111000 C
b11111111111111111111111111111000 o"
b100001111 ~"
b100001111 !#
b1 "#
b1100011 ##
1E
1y"
b1 z"
b1000 {"
b1000 )
b11111110000100010001 p"
b11111111111111111111111111100001 9
b11111111111111111111111111100001 m"
b111111100001 l"
b1 X
b1 r"
b10 _
b11001 c
b11001 f
b1 w"
b111111111001 n"
b1 |"
b1100011 }"
b11000 6
b11000 ]
b1000 %
b1000 G
b1000 R
b1000 x"
b1000 $#
b1000 S
b1010 V
b11111110000100010001110011100011 (
b11111110000100010001110011100011 <
b11111110000100010001110011100011 )#
b100100 5
b1010 J
b1010 P
b11000 D
b100100 7
b100000 &
b100000 4
b100000 ^
b100000 (#
b11 Q"
b1010 3
b1010 `
1!
#24
0!
#25
b0 #
b0 0
b0 Z
b0 &#
b1 W
b11 *
b11 d
b11 h
b11 k
b11 n
b11 q
b11 t
b11 w
b11 z
b11 }
b11 ""
b11 %"
b11 ("
b11 +"
b11 ."
b11 1"
b11 4"
b11 7"
b11 :"
b11 ="
b11 @"
b11 C"
b11 F"
b11 I"
b11 L"
b11 O"
b11 R"
b11 U"
b11 X"
b11 ["
b11 ^"
b11 a"
b11 d"
b11 g"
b1 I
b1 Q
1l
b11 {"
b11 )
b1 +
b10 e
b10 g
b10 B
b1000100000000000 ;
b1000100000000000 q"
b11 %
b11 G
b11 R
b11 x"
b11 $#
b11 S
b10 V
0U
0F
0N
1L
0,
0=
0M
b1 :
b0 ?
b0 \
b11111111111111111111111100000010 $
b11111111111111111111111100000010 1
b11111111111111111111111100000010 t"
b11111111111111111111111100000010 %#
b11111111111111111111111100000010 u"
b0 v"
b10 J
b10 P
b1 -
b1 k"
b1 .
b1 j"
0E
0y"
b0 z"
b100000000000 C
b100000000000 o"
b101000 ~"
b101000 !#
b0 "#
b10011 ##
b100001000 p"
b1 9
b1 m"
b1 l"
b0 X
b0 r"
b10 3
b10 `
b1 _
b1 c
b1 f
b0 w"
b1 n"
b0 |"
b10011 }"
b100001000000010010011 (
b100001000000010010011 <
b100001000000010010011 )#
b11100 6
b11100 ]
b11100 5
b100000011000 D
b11100 7
b11000 &
b11000 4
b11000 ^
b11000 (#
1!
#26
0!
#27
b11 W
b11 I
b11 Q
b11 +
b11000100000000000 ;
b11000100000000000 q"
0l
1P"
1N
b110 *
b110 d
b110 h
b110 k
b110 n
b110 q
b110 t
b110 w
b110 z
b110 }
b110 ""
b110 %"
b110 ("
b110 +"
b110 ."
b110 1"
b110 4"
b110 7"
b110 :"
b110 ="
b110 @"
b110 C"
b110 F"
b110 I"
b110 L"
b110 O"
b110 R"
b110 U"
b110 X"
b110 ["
b110 ^"
b110 a"
b110 d"
b110 g"
b1000 e
b1000 g
b100000000010 C
b100000000010 o"
b100101000 ~"
b100101000 !#
b110011 ##
b110 {"
b110 )
b100011000 p"
b11 _
b11 c
b11 f
b11 n"
b110011 }"
b100000 6
b100000 ]
b110 %
b110 G
b110 R
b110 x"
b110 $#
b110 S
b11 V
b100011000000110110011 (
b100011000000110110011 <
b100011000000110110011 )#
b100000 5
b11 J
b11 P
b100000011110 D
b100000 7
b11100 &
b11100 4
b11100 ^
b11100 (#
b11 m
b11 3
b11 `
b11 2
b11 b
b11 s"
1!
#28
0!
#29
b0 T
b0 B
1F
b111 *
b111 d
b111 h
b111 k
b111 n
b111 q
b111 t
b111 w
b111 z
b111 }
b111 ""
b111 %"
b111 ("
b111 +"
b111 ."
b111 1"
b111 4"
b111 7"
b111 :"
b111 ="
b111 @"
b111 C"
b111 F"
b111 I"
b111 L"
b111 O"
b111 R"
b111 U"
b111 X"
b111 ["
b111 ^"
b111 a"
b111 d"
b111 g"
b11111111111100010001111111100000 ;
b11111111111100010001111111100000 q"
b0 @
b0 O
1U
0P"
0A"
0L
1,
1=
1M
b111 )
b11111111111111111111111111100001 :
b1 ?
b1 \
b11111111111111110000000000000011 $
b11111111111111110000000000000011 1
b11111111111111110000000000000011 t"
b11111111111111110000000000000011 %#
b11111111111111110000000000000011 u"
b1 v"
b0 e
b0 g
b11111111111111111111111111100001 -
b11111111111111111111111111100001 k"
b111111100001 .
b111111100001 j"
1E
1y"
b1 z"
b111 {"
b11111111111111111111111111111000 C
b11111111111111111111111111111000 o"
b100001111 ~"
b100001111 !#
b1 "#
b1100011 ##
b111 %
b111 G
b111 R
b111 x"
b111 $#
b111 S
b1010 V
b11111110000100010001 p"
b11111111111111111111111111100001 9
b11111111111111111111111111100001 m"
b111111100001 l"
b1 X
b1 r"
b10 _
b11001 c
b11001 f
b1 w"
b111111111001 n"
b1 |"
b1100011 }"
b11000 6
b11000 ]
b1010 J
b1010 P
b11111110000100010001110011100011 (
b11111110000100010001110011100011 <
b11111110000100010001110011100011 )#
b100100 5
b110 Q"
b1010 3
b1010 `
b11000 D
b100100 7
b100000 &
b100000 4
b100000 ^
b100000 (#
1!
#30
0!
